…
    ## ── Column specification ────────────────────────────────────────────────────────
    ## Delimiter: ","
    ## chr (7): asin, helpful, reviewText, reviewTime, reviewerID, reviewerName, su...
    ## dbl (3): ...1, overall, unixReviewTime

    ## 
    ## ℹ Use `spec()` to retrieve the full column specification for this data.
    ## ℹ Specify the column types or set `show_col_types = FALSE` to quiet this message.

``` r
electronics
```

    ## # A tibble: 65,809 × 10
    ##      ...1 asin       helpful overall reviewText reviewTime reviewerID reviewerName
    ##     <dbl> <chr>      <chr>     <dbl> <chr>      <chr>      <chr>      <chr>       
    ##  1 175426 B000BQ7GW8 [0, 0]        5 Was deliv… 04 27, 20… AYK7KLKHF… "2009BC \"b…
    ##  2 175427 B000BQ7GW8 [0, 0]        5 More than… 09 28, 20… A28OOZEJ1… "2hawk feat…
    ##  3 175428 B000BQ7GW8 [0, 0]        5 Nice pric… 03 12, 20… A2W8HPGBR… "39ejhsosjd…
    ##  4 175429 B000BQ7GW8 [0, 0]        5 This card… 04 17, 20… A2OMYXNS1… "aadavidall…
    ##  5 175430 B000BQ7GW8 [0, 0]        4 I have ha… 05 8, 2014 A3O1Y8Y31… "Aaron"     
    ##  6 175431 B000BQ7GW8 [0, 1]        4 I made th… 05 6, 2013 A1OXQAY95… "Aaron Pier…
    ##  7 175432 B000BQ7GW8 [0, 0]        5 Using thi… 10 29, 20… A55OWI53K… "Abby507vc" 
    ##  8 175434 B000BQ7GW8 [0, 0]        5 ThisSanDi… 12 6, 2012 A2TN0U817… "acanal"    
    ##  9 175435 B000BQ7GW8 [0, 0]        5 I've neve… 12 20, 20… A1IMRWGBX… "A. Carman" 
    ## 10 175436 B000BQ7GW8 [0, 1]        5 At first,… 01 27, 20… A3R3MDH0H… "A Customer"
    ## # … with 65,799 more rows, and 2 more variables: summary <chr>,
    ## #   unixReviewTime <dbl>

``` r
#2 
electronics %>% filter(str_detect(electronics$reviewText, "\\bsd\\b|\\bSD\\b")=="TRUE") %>% group_by(asin) %>% count() %>% arrange(desc(n))
```

    ## # A tibble: 965 × 2
    ## # Groups:   asin [965]
    ##    asin           n
    ##    <chr>      <int>
    ##  1 B007WTAJTO   576
    ##  2 B002WE6D44   214
    ##  3 B000VX6XL6   192
    ##  4 B000BQ7GW8   166
    ##  5 B002MAPRYU   145
    ##  6 B004G6002M   126
    ##  7 B007P4VOWC    84
    ##  8 B000QUUFRW     9
    ##  9 B001L1H0SC     7
    ## 10 B0046TJG1U     7
    ## # … with 955 more rows
…
